%YAML 1.1
%TAG !u! tag:unity3d.com,2011:
--- !u!1045 &1
EditorBuildSettings:
  m_ObjectHideFlags: 0
  serializedVersion: 2
  m_Scenes:
  - enabled: 1
    path: Assets/_PROJECT/Scenes/Story.unity
    guid: 46903facb4164cf4faae39ed12b645ae
  - enabled: 1
    path: Assets/_PROJECT/Scenes/Menu.unity
    guid: 9fc0d4010bbf28b4594072e72b8655ab
  - enabled: 1
    path: Assets/LoadingScene/MMTools/Tools/SceneLoading/LoadingScreen.unity
    guid: 888394d52616e5e42b3b54c3f2bbd3eb
  - enabled: 1
    path: Assets/_PROJECT/Scenes/1.1.unity
    guid: 6eb8eba05d7b7e2469073188766d8f30
  - enabled: 1
    path: Assets/_PROJECT/Scenes/1.2.unity
    guid: d7215068640811a458692035dc1f84df
  - enabled: 1
    path: Assets/_PROJECT/Scenes/1.3.unity
    guid: 8f7ddeb284af57645bc0e9891e454970
  - enabled: 1
    path: Assets/_PROJECT/Scenes/2.1.1.unity
    guid: 33262db3f155c06489a23754d4a812e9
  - enabled: 1
    path: Assets/_PROJECT/Scenes/2.1.2.unity
    guid: 20988538ae4cb564d88b10126f714883
  - enabled: 1
    path: Assets/_PROJECT/Scenes/2.1.3.unity
    guid: e69eb5efd0343e24a931d9b15a4824d5
  - enabled: 1
    path: Assets/_PROJECT/Scenes/2.1.4.unity
    guid: f11f70edd9d36c24d9858f0a30638191
  - enabled: 1
    path: Assets/_PROJECT/Scenes/2.2.1.unity
    guid: ce9facde1afc95046847937d0f19d074
  - enabled: 1
    path: Assets/_PROJECT/Scenes/2.2.2.unity
    guid: 8a166792ae90e074390291bbf0fdae33
  - enabled: 1
    path: Assets/_PROJECT/Scenes/2.2.3.unity
    guid: f653740f8524ec445a641205193b06d7
  - enabled: 1
    path: Assets/_PROJECT/Scenes/Alphabet.unity
    guid: 0b370c3cbb46f484da3f978ce8700669
  - enabled: 1
    path: Assets/_PROJECT/Scenes/Bangla.unity
    guid: 8472351a4bd0e0e419666061bcb63776
  - enabled: 1
    path: Assets/English Tracing Book/Scenes/Drawing.unity
    guid: d20ccbc3f8900ac4b8925a43e8e0397a
  - enabled: 1
    path: Assets/English Tracing Book/Scenes/Game.unity
    guid: 580dc37f8a1ef3e468daaf4e0efcc090
  - enabled: 1
    path: Assets/English Tracing Book/Scenes/NumbersAlbum.unity
    guid: db10ab28836dba149ba60bf86e2a3864
  - enabled: 1
    path: Assets/English Tracing Book/Scenes/UppercaseAlbum.unity
    guid: 37c47f3e137126146aa17870dd97081b
  m_configObjects: {}
