%YAML 1.1
%TAG !u! tag:unity3d.com,2011:
--- !u!74 &7400000
AnimationClip:
  m_ObjectHideFlags: 0
  m_CorrespondingSourceObject: {fileID: 0}
  m_PrefabInstance: {fileID: 0}
  m_PrefabAsset: {fileID: 0}
  m_Name: Red-VioletJar_Walk
  serializedVersion: 6
  m_Legacy: 0
  m_Compressed: 0
  m_UseHighQualityCurve: 1
  m_RotationCurves: []
  m_CompressedRotationCurves: []
  m_EulerCurves: []
  m_PositionCurves: []
  m_ScaleCurves: []
  m_FloatCurves: []
  m_PPtrCurves:
  - curve:
    - time: 0
      value: {fileID: 21300000, guid: 85915589161857a43bea6f6b6a6d1954, type: 3}
    - time: 0.083333336
      value: {fileID: 21300000, guid: fe7865028c1e377408795e28edf344a6, type: 3}
    - time: 0.16666667
      value: {fileID: 21300000, guid: b9f954f94c30c3240b2f74a5c42ced09, type: 3}
    - time: 0.25
      value: {fileID: 21300000, guid: 8136d5aa688a3cb4bae341c032a7eec4, type: 3}
    - time: 0.33333334
      value: {fileID: 21300000, guid: 6c03fe3bde4ab0a4299d04189a99bbb9, type: 3}
    - time: 0.41666666
      value: {fileID: 21300000, guid: 505dd52ebdf2e6349a2f6556c30aa045, type: 3}
    - time: 0.5
      value: {fileID: 21300000, guid: a46f0046248f0ce4587732875ccd2fe7, type: 3}
    - time: 0.5833333
      value: {fileID: 21300000, guid: eb07f37a02d1b7249b78858bdfea5bdf, type: 3}
    - time: 0.6666667
      value: {fileID: 21300000, guid: 16bb71e111565f2489a55823a3dc865a, type: 3}
    attribute: m_Sprite
    path: 
    classID: 212
    script: {fileID: 0}
  m_SampleRate: 60
  m_WrapMode: 0
  m_Bounds:
    m_Center: {x: 0, y: 0, z: 0}
    m_Extent: {x: 0, y: 0, z: 0}
  m_ClipBindingConstant:
    genericBindings:
    - serializedVersion: 2
      path: 0
      attribute: 0
      script: {fileID: 0}
      typeID: 212
      customType: 23
      isPPtrCurve: 1
    pptrCurveMapping:
    - {fileID: 21300000, guid: 85915589161857a43bea6f6b6a6d1954, type: 3}
    - {fileID: 21300000, guid: fe7865028c1e377408795e28edf344a6, type: 3}
    - {fileID: 21300000, guid: b9f954f94c30c3240b2f74a5c42ced09, type: 3}
    - {fileID: 21300000, guid: 8136d5aa688a3cb4bae341c032a7eec4, type: 3}
    - {fileID: 21300000, guid: 6c03fe3bde4ab0a4299d04189a99bbb9, type: 3}
    - {fileID: 21300000, guid: 505dd52ebdf2e6349a2f6556c30aa045, type: 3}
    - {fileID: 21300000, guid: a46f0046248f0ce4587732875ccd2fe7, type: 3}
    - {fileID: 21300000, guid: eb07f37a02d1b7249b78858bdfea5bdf, type: 3}
    - {fileID: 21300000, guid: 16bb71e111565f2489a55823a3dc865a, type: 3}
  m_AnimationClipSettings:
    serializedVersion: 2
    m_AdditiveReferencePoseClip: {fileID: 0}
    m_AdditiveReferencePoseTime: 0
    m_StartTime: 0
    m_StopTime: 0.68333334
    m_OrientationOffsetY: 0
    m_Level: 0
    m_CycleOffset: 0
    m_HasAdditiveReferencePose: 0
    m_LoopTime: 0
    m_LoopBlend: 0
    m_LoopBlendOrientation: 0
    m_LoopBlendPositionY: 0
    m_LoopBlendPositionXZ: 0
    m_KeepOriginalOrientation: 0
    m_KeepOriginalPositionY: 1
    m_KeepOriginalPositionXZ: 0
    m_HeightFromFeet: 0
    m_Mirror: 0
  m_EditorCurves: []
  m_EulerEditorCurves: []
  m_HasGenericRootTransform: 0
  m_HasMotionFloatCurves: 0
  m_Events:
  - time: 0.6666667
    functionName: Red_VioletJarWalkEnd
    data: 
    objectReferenceParameter: {fileID: 0}
    floatParameter: 0
    intParameter: 0
    messageOptions: 0
