%YAML 1.1
%TAG !u! tag:unity3d.com,2011:
--- !u!74 &7400000
AnimationClip:
  m_ObjectHideFlags: 0
  m_CorrespondingSourceObject: {fileID: 0}
  m_PrefabInstance: {fileID: 0}
  m_PrefabAsset: {fileID: 0}
  m_Name: Yellow-GreenJar_Walk
  serializedVersion: 6
  m_Legacy: 0
  m_Compressed: 0
  m_UseHighQualityCurve: 1
  m_RotationCurves: []
  m_CompressedRotationCurves: []
  m_EulerCurves: []
  m_PositionCurves: []
  m_ScaleCurves: []
  m_FloatCurves: []
  m_PPtrCurves:
  - curve:
    - time: 0
      value: {fileID: 21300000, guid: 3db6a86427cf0894f87155ee68fbfe6c, type: 3}
    - time: 0.083333336
      value: {fileID: 21300000, guid: a6c581beb82abdb4aa061f1c0bd7c0f2, type: 3}
    - time: 0.16666667
      value: {fileID: 21300000, guid: 0102bee8e08d2554e979182b85800857, type: 3}
    - time: 0.25
      value: {fileID: 21300000, guid: 96a767ea96a73a64dab441db2445c7d4, type: 3}
    - time: 0.33333334
      value: {fileID: 21300000, guid: 3f1a3a4d77eb63e48b2ce86ceeda6435, type: 3}
    - time: 0.41666666
      value: {fileID: 21300000, guid: 5f31b0990fc6b1441ac762cbeb1b8408, type: 3}
    - time: 0.5
      value: {fileID: 21300000, guid: 2f76335f5805a5e44906d0146f60d15d, type: 3}
    - time: 0.5833333
      value: {fileID: 21300000, guid: 9c29c568aa2988047922073ba95c2023, type: 3}
    - time: 0.6666667
      value: {fileID: 21300000, guid: 0005982d4cc6e5c4eb365848545d7530, type: 3}
    attribute: m_Sprite
    path: 
    classID: 212
    script: {fileID: 0}
  m_SampleRate: 60
  m_WrapMode: 0
  m_Bounds:
    m_Center: {x: 0, y: 0, z: 0}
    m_Extent: {x: 0, y: 0, z: 0}
  m_ClipBindingConstant:
    genericBindings:
    - serializedVersion: 2
      path: 0
      attribute: 0
      script: {fileID: 0}
      typeID: 212
      customType: 23
      isPPtrCurve: 1
    pptrCurveMapping:
    - {fileID: 21300000, guid: 3db6a86427cf0894f87155ee68fbfe6c, type: 3}
    - {fileID: 21300000, guid: a6c581beb82abdb4aa061f1c0bd7c0f2, type: 3}
    - {fileID: 21300000, guid: 0102bee8e08d2554e979182b85800857, type: 3}
    - {fileID: 21300000, guid: 96a767ea96a73a64dab441db2445c7d4, type: 3}
    - {fileID: 21300000, guid: 3f1a3a4d77eb63e48b2ce86ceeda6435, type: 3}
    - {fileID: 21300000, guid: 5f31b0990fc6b1441ac762cbeb1b8408, type: 3}
    - {fileID: 21300000, guid: 2f76335f5805a5e44906d0146f60d15d, type: 3}
    - {fileID: 21300000, guid: 9c29c568aa2988047922073ba95c2023, type: 3}
    - {fileID: 21300000, guid: 0005982d4cc6e5c4eb365848545d7530, type: 3}
  m_AnimationClipSettings:
    serializedVersion: 2
    m_AdditiveReferencePoseClip: {fileID: 0}
    m_AdditiveReferencePoseTime: 0
    m_StartTime: 0
    m_StopTime: 0.68333334
    m_OrientationOffsetY: 0
    m_Level: 0
    m_CycleOffset: 0
    m_HasAdditiveReferencePose: 0
    m_LoopTime: 0
    m_LoopBlend: 0
    m_LoopBlendOrientation: 0
    m_LoopBlendPositionY: 0
    m_LoopBlendPositionXZ: 0
    m_KeepOriginalOrientation: 0
    m_KeepOriginalPositionY: 1
    m_KeepOriginalPositionXZ: 0
    m_HeightFromFeet: 0
    m_Mirror: 0
  m_EditorCurves: []
  m_EulerEditorCurves: []
  m_HasGenericRootTransform: 0
  m_HasMotionFloatCurves: 0
  m_Events:
  - time: 0.6666667
    functionName: Yellow_GreenJarWalkEnd
    data: 
    objectReferenceParameter: {fileID: 0}
    floatParameter: 0
    intParameter: 0
    messageOptions: 0
